<?xml version="1.0" encoding="UTF-8" standalone="no"?>
<!-- Created with Inkscape (http://www.inkscape.org/) -->

<svg
   xmlns:dc="http://purl.org/dc/elements/1.1/"
   xmlns:cc="http://creativecommons.org/ns#"
   xmlns:rdf="http://www.w3.org/1999/02/22-rdf-syntax-ns#"
   xmlns:svg="http://www.w3.org/2000/svg"
   xmlns="http://www.w3.org/2000/svg"
   xmlns:sodipodi="http://sodipodi.sourceforge.net/DTD/sodipodi-0.dtd"
   xmlns:inkscape="http://www.inkscape.org/namespaces/inkscape"
   width="265.92609mm"
   height="89.308708mm"
   viewBox="0 0 265.92609 89.308708"
   version="1.1"
   id="svg8"
   inkscape:version="0.92.1 r"
   sodipodi:docname="punto-linea-poligono.svg">
  <defs
     id="defs2" />
  <sodipodi:namedview
     id="base"
     pagecolor="#ffffff"
     bordercolor="#666666"
     borderopacity="1.0"
     inkscape:pageopacity="0.0"
     inkscape:pageshadow="2"
     inkscape:zoom="0.52309831"
     inkscape:cx="431.34265"
     inkscape:cy="187.42323"
     inkscape:document-units="mm"
     inkscape:current-layer="layer1"
     showgrid="false"
     showguides="false"
     inkscape:window-width="1366"
     inkscape:window-height="715"
     inkscape:window-x="125"
     inkscape:window-y="899"
     inkscape:window-maximized="1"
     fit-margin-top="0"
     fit-margin-left="0"
     fit-margin-right="0"
     fit-margin-bottom="0" />
  <metadata
     id="metadata5">
    <rdf:RDF>
      <cc:Work
         rdf:about="">
        <dc:format>image/svg+xml</dc:format>
        <dc:type
           rdf:resource="http://purl.org/dc/dcmitype/StillImage" />
        <dc:title></dc:title>
      </cc:Work>
    </rdf:RDF>
  </metadata>
  <g
     inkscape:label="Capa 1"
     inkscape:groupmode="layer"
     id="layer1"
     transform="translate(-25.812109,-96.757301)">
    <g
       id="g130">
      <g
         id="g61">
        <path
           style="opacity:1;fill:#729fcf;fill-opacity:1;fill-rule:nonzero;stroke:#000000;stroke-width:1;stroke-linecap:round;stroke-miterlimit:4;stroke-dasharray:none;stroke-opacity:1"
           d="M 26.312109,97.257309 H 114.62081 V 185.56601 H 26.312109 Z"
           id="rect10" />
        <path
           style="opacity:1;fill:#000000;fill-opacity:1;fill-rule:nonzero;stroke:#000000;stroke-width:0.49621567;stroke-linecap:round;stroke-miterlimit:4;stroke-dasharray:none;stroke-opacity:1"
           d="m 48.601097,110.09242 a 2.2518921,2.2518921 0 0 1 -2.251892,2.25189 2.2518921,2.2518921 0 0 1 -2.251892,-2.25189 2.2518921,2.2518921 0 0 1 2.251892,-2.25189 2.2518921,2.2518921 0 0 1 2.251892,2.25189 z"
           id="path12" />
        <path
           style="opacity:1;fill:#000000;fill-opacity:1;fill-rule:nonzero;stroke:#000000;stroke-width:0.49621567;stroke-linecap:round;stroke-miterlimit:4;stroke-dasharray:none;stroke-opacity:1"
           d="m 45.382202,158.37584 a 2.2518921,2.2518921 0 0 1 -2.251892,2.25189 2.2518921,2.2518921 0 0 1 -2.251892,-2.25189 2.2518921,2.2518921 0 0 1 2.251892,-2.25189 2.2518921,2.2518921 0 0 1 2.251892,2.25189 z"
           id="circle14" />
        <path
           style="opacity:1;fill:#000000;fill-opacity:1;fill-rule:nonzero;stroke:#000000;stroke-width:0.49621567;stroke-linecap:round;stroke-miterlimit:4;stroke-dasharray:none;stroke-opacity:1"
           d="m 90.446716,168.39017 a 2.2518921,2.2518921 0 0 1 -2.251892,2.25189 2.2518921,2.2518921 0 0 1 -2.251892,-2.25189 2.2518921,2.2518921 0 0 1 2.251892,-2.25189 2.2518921,2.2518921 0 0 1 2.251892,2.25189 z"
           id="circle16" />
        <path
           style="opacity:1;fill:#000000;fill-opacity:1;fill-rule:nonzero;stroke:#000000;stroke-width:0.49621567;stroke-linecap:round;stroke-miterlimit:4;stroke-dasharray:none;stroke-opacity:1"
           d="m 94.02327,120.46441 a 2.2518921,2.2518921 0 0 1 -2.251892,2.25189 2.2518921,2.2518921 0 0 1 -2.251893,-2.25189 2.2518921,2.2518921 0 0 1 2.251893,-2.25189 2.2518921,2.2518921 0 0 1 2.251892,2.25189 z"
           id="circle54" />
      </g>
      <g
         transform="translate(88.308693,-7.6277343e-6)"
         id="g73">
        <path
           style="opacity:1;fill:#ad7fa8;fill-opacity:1;fill-rule:nonzero;stroke:#000000;stroke-width:1;stroke-linecap:round;stroke-miterlimit:4;stroke-dasharray:none;stroke-opacity:1"
           d="M 26.312109,97.257309 H 114.62081 V 185.56601 H 26.312109 Z"
           id="rect63" />
        <path
           style="opacity:1;fill:#000000;fill-opacity:1;fill-rule:nonzero;stroke:#000000;stroke-width:0.49621567;stroke-linecap:round;stroke-miterlimit:4;stroke-dasharray:none;stroke-opacity:1"
           d="m 48.601097,110.09242 a 2.2518921,2.2518921 0 0 1 -2.251892,2.25189 2.2518921,2.2518921 0 0 1 -2.251892,-2.25189 2.2518921,2.2518921 0 0 1 2.251892,-2.25189 2.2518921,2.2518921 0 0 1 2.251892,2.25189 z"
           id="circle65" />
        <path
           style="opacity:1;fill:#000000;fill-opacity:1;fill-rule:nonzero;stroke:#000000;stroke-width:0.49621567;stroke-linecap:round;stroke-miterlimit:4;stroke-dasharray:none;stroke-opacity:1"
           d="m 45.382202,158.37584 a 2.2518921,2.2518921 0 0 1 -2.251892,2.25189 2.2518921,2.2518921 0 0 1 -2.251892,-2.25189 2.2518921,2.2518921 0 0 1 2.251892,-2.25189 2.2518921,2.2518921 0 0 1 2.251892,2.25189 z"
           id="circle67" />
        <path
           style="opacity:1;fill:#000000;fill-opacity:1;fill-rule:nonzero;stroke:#000000;stroke-width:0.49621567;stroke-linecap:round;stroke-miterlimit:4;stroke-dasharray:none;stroke-opacity:1"
           d="m 90.446716,168.39017 a 2.2518921,2.2518921 0 0 1 -2.251892,2.25189 2.2518921,2.2518921 0 0 1 -2.251892,-2.25189 2.2518921,2.2518921 0 0 1 2.251892,-2.25189 2.2518921,2.2518921 0 0 1 2.251892,2.25189 z"
           id="circle69" />
        <path
           style="opacity:1;fill:#000000;fill-opacity:1;fill-rule:nonzero;stroke:#000000;stroke-width:0.49621567;stroke-linecap:round;stroke-miterlimit:4;stroke-dasharray:none;stroke-opacity:1"
           d="m 94.02327,120.46441 a 2.2518921,2.2518921 0 0 1 -2.251892,2.25189 2.2518921,2.2518921 0 0 1 -2.251893,-2.25189 2.2518921,2.2518921 0 0 1 2.251893,-2.25189 2.2518921,2.2518921 0 0 1 2.251892,2.25189 z"
           id="circle71" />
      </g>
      <g
         id="g85"
         transform="translate(176.6174,-7.6277342e-6)">
        <path
           style="opacity:1;fill:#e9b96e;fill-opacity:1;fill-rule:nonzero;stroke:#000000;stroke-width:1;stroke-linecap:round;stroke-miterlimit:4;stroke-dasharray:none;stroke-opacity:1"
           d="M 26.312109,97.257309 H 114.62081 V 185.56601 H 26.312109 Z"
           id="rect75" />
        <path
           style="opacity:1;fill:#000000;fill-opacity:1;fill-rule:nonzero;stroke:#000000;stroke-width:0.49621567;stroke-linecap:round;stroke-miterlimit:4;stroke-dasharray:none;stroke-opacity:1"
           d="m 48.601097,110.09242 a 2.2518921,2.2518921 0 0 1 -2.251892,2.25189 2.2518921,2.2518921 0 0 1 -2.251892,-2.25189 2.2518921,2.2518921 0 0 1 2.251892,-2.25189 2.2518921,2.2518921 0 0 1 2.251892,2.25189 z"
           id="circle77" />
        <path
           style="opacity:1;fill:#000000;fill-opacity:1;fill-rule:nonzero;stroke:#000000;stroke-width:0.49621567;stroke-linecap:round;stroke-miterlimit:4;stroke-dasharray:none;stroke-opacity:1"
           d="m 45.382202,158.37584 a 2.2518921,2.2518921 0 0 1 -2.251892,2.25189 2.2518921,2.2518921 0 0 1 -2.251892,-2.25189 2.2518921,2.2518921 0 0 1 2.251892,-2.25189 2.2518921,2.2518921 0 0 1 2.251892,2.25189 z"
           id="circle79" />
        <path
           style="opacity:1;fill:#000000;fill-opacity:1;fill-rule:nonzero;stroke:#000000;stroke-width:0.49621567;stroke-linecap:round;stroke-miterlimit:4;stroke-dasharray:none;stroke-opacity:1"
           d="m 90.446716,168.39017 a 2.2518921,2.2518921 0 0 1 -2.251892,2.25189 2.2518921,2.2518921 0 0 1 -2.251892,-2.25189 2.2518921,2.2518921 0 0 1 2.251892,-2.25189 2.2518921,2.2518921 0 0 1 2.251892,2.25189 z"
           id="circle81" />
        <path
           style="opacity:1;fill:#000000;fill-opacity:1;fill-rule:nonzero;stroke:#000000;stroke-width:0.49621567;stroke-linecap:round;stroke-miterlimit:4;stroke-dasharray:none;stroke-opacity:1"
           d="m 94.02327,120.46441 a 2.2518921,2.2518921 0 0 1 -2.251892,2.25189 2.2518921,2.2518921 0 0 1 -2.251893,-2.25189 2.2518921,2.2518921 0 0 1 2.251893,-2.25189 2.2518921,2.2518921 0 0 1 2.251892,2.25189 z"
           id="circle83" />
      </g>
      <path
         inkscape:connector-curvature="0"
         id="path87"
         d="m 134.83589,110.6618 45.06452,8.94137 -3.2189,48.28341 -44.3492,-8.94137"
         style="fill:none;fill-rule:evenodd;stroke:#000000;stroke-width:2;stroke-linecap:butt;stroke-linejoin:miter;stroke-opacity:1" />
      <path
         inkscape:connector-curvature="0"
         id="path89"
         d="m 223.5343,109.94649 -3.9342,48.28341 45.06451,10.01434 3.57656,-48.28341 z"
         style="fill:#d3d7cf;fill-opacity:1;fill-rule:evenodd;stroke:#000000;stroke-width:2;stroke-linecap:butt;stroke-linejoin:miter;stroke-opacity:1" />
    </g>
  </g>
</svg>
